{
  "camera": {
    "conditions": [],
    "actions": [
      {
        "id": "optimis",
        "scriptName": "Optimis",
        "highlight": false,
        "params": [
          {
            "id": "x",
            "type": "any"
          },
          {
            "id": "y",
            "type": "any"
          },
          {
            "id": "width",
            "type": "any"
          },
          {
            "id": "height",
            "type": "any"
          }
        ]
      },
      {
        "id": "putar",
        "scriptName": "Putar",
        "highlight": false
      },
      {
        "id": "stopcamera",
        "scriptName": "Stopcamera",
        "highlight": false
      },
      {
        "id": "show",
        "scriptName": "Show",
        "highlight": false
      },
      {
        "id": "hide",
        "scriptName": "Hide",
        "highlight": false
      },
      {
        "id": "setpreviewsize",
        "scriptName": "Setpreviewsize",
        "highlight": false,
        "params": [
          {
            "id": "w",
            "type": "any"
          },
          {
            "id": "h",
            "type": "any"
          }
        ]
      },
      {
        "id": "setzoom",
        "scriptName": "Setzoom",
        "highlight": false,
        "params": [
          {
            "id": "zom",
            "type": "number"
          }
        ]
      }
    ],
    "expressions": []
  },
  "tools": {
    "conditions": [
      {
        "id": "startrecordvideo",
        "scriptName": "Startrecordvideo",
        "highlight": false,
        "isTrigger": true
      },
      {
        "id": "stoprecordvideo",
        "scriptName": "Stoprecordvideo",
        "highlight": false,
        "isTrigger": true
      }
    ],
    "actions": [
      {
        "id": "takepicture",
        "scriptName": "Takepicture",
        "highlight": false,
        "params": [
          {
            "id": "a",
            "type": "any"
          },
          {
            "id": "b",
            "type": "any"
          },
          {
            "id": "c",
            "type": "any"
          },
          {
            "id": "d",
            "type": "any"
          }
        ]
      },
      {
        "id": "takesnapshot",
        "scriptName": "Takesnapshot",
        "highlight": false,
        "params": [
          {
            "id": "quality",
            "type": "any"
          }
        ]
      },
      {
        "id": "setflashmode",
        "scriptName": "Setflashmode",
        "highlight": false,
        "params": [
          {
            "id": "rh",
            "type": "string"
          }
        ]
      },
      {
        "id": "startrecordvideo",
        "scriptName": "Startrecordvideo",
        "highlight": false,
        "params": [
          {
            "id": "p",
            "type": "string"
          },
          {
            "id": "w",
            "type": "string"
          },
          {
            "id": "x",
            "type": "number"
          },
          {
            "id": "y",
            "type": "string"
          }
        ]
      },
      {
        "id": "stoprecordvideo",
        "scriptName": "Stoprecordvideo",
        "highlight": false
      }
    ],
    "expressions": []
  },
  "eff": {
    "conditions": [],
    "actions": [
      {
        "id": "setcoloreffect",
        "scriptName": "Setcoloreffect",
        "highlight": false,
        "params": [
          {
            "id": "eff",
            "type": "string"
          }
        ]
      }
    ],
    "expressions": []
  },
  "cb": {
    "conditions": [
      {
        "id": "camera",
        "scriptName": "Camera",
        "highlight": false,
        "isTrigger": true
      },
      {
        "id": "putar",
        "scriptName": "Putar",
        "highlight": false,
        "isTrigger": true
      },
      {
        "id": "stop",
        "scriptName": "Stop",
        "highlight": false,
        "isTrigger": true
      },
      {
        "id": "show",
        "scriptName": "Show",
        "highlight": false,
        "isTrigger": true
      },
      {
        "id": "hide",
        "scriptName": "Hide",
        "highlight": false,
        "isTrigger": true
      },
      {
        "id": "error",
        "scriptName": "Error",
        "highlight": false,
        "isTrigger": true
      },
      {
        "id": "takepicture",
        "scriptName": "Takepicture",
        "highlight": false,
        "isTrigger": true
      },
      {
        "id": "takesnapshot",
        "scriptName": "Takesnapshot",
        "highlight": false,
        "isTrigger": true
      }
    ],
    "actions": [],
    "expressions": []
  },
  "res": {
    "conditions": [
      {
        "id": "response",
        "scriptName": "Response",
        "highlight": false,
        "isTrigger": true
      }
    ],
    "actions": [],
    "expressions": []
  },
  "resp": {
    "conditions": [],
    "actions": [],
    "expressions": [
      {
        "id": "response",
        "expressionName": "Response",
        "returnType": "any"
      }
    ]
  }
}