﻿{
	"objectfunctioncall": {
		"conditions": [
			{
				"id": "is-moving",
				"scriptName": "IsMoving"
			}
		],
		"actions": [
			{
				"id": "stop",
				"scriptName": "Stop"
			},
			{
				"id": "call-object-function",
				"highlight": true,
				"scriptName": "CallObjectFunction",
				"params": [
					{
						"id": "object-function-name",
						"type": "string",
						"initialValue": ""
					},
					{
						"id": "object-function-params",
						"type": "variadic"
					}
				]
			}
		],
		"expressions": [
			{
				"id": "leet",
				"expressionName": "MyExpression",
				"scriptName": "MyExpression",
				"returnType": "number"
			}
		]
	}
}