﻿{
	"jsonloop" : {
		"conditions": [
			{
				"id": "json-array-loop",
				"scriptName": "JsonArrayLoop",
				"returnType": "any",
				"isLooping": true,
				"isInvertible": false,
				"params": [
					{
						"id": "array-loop-slot",
						"type": "string",
						"initialValue": ""
					},
					{
						"id": "array-loop-query",
						"type": "string",
						"initialValue": ""
					},
					{
						"id": "array-used-within-another-array-loop",
						"type": "combo",
						"items": ["array-item-not-in-existing-loop", "array-item-in-existing-loop"],
						"initialValue": "array-item-not-in-existing-loop"
					}
				]
			}
		],
		"actions": [],
		"expressions": [
			{
				"id": "get-json-loop-index",
				"expressionName": "JsonLoopIndex",
				"scriptName": "JsonLoopIndex",
				"highlight": true,
				"returnType": "number",
				"params": []
			}
		]
	},
	"json" : {
		"conditions": [
			{
				"id":"json-loaded",
				"scriptName": "JsonManagerLoaded",
				"returnType": "any",
				"isTrigger":true,
				"isCompatibleWithTriggers":false
			}
		],
		"actions": [
			{
				"id": "load-json",
				"scriptName": "LoadJsonManager",
				"highlight": true,
				"params":[
					{
						"id": "clear-cache",
						"type": "string",
						"initialValue": "\"false\""
					}
				]
			},
			{
				"id": "load-json-string",
				"scriptName": "LoadJsonManagerFromString",
				"highlight": false,
				"params":[
					{
						"id": "json-load-string-slot",
						"type": "string",
						"initialValue": ""
					},
					{
						"id": "json-load-string",
						"type": "string",
						"initialValue": ""
					},
					{
						"id": "clear-cache-from-string",
						"type": "string",
						"initialValue": "\"false\""
					}
				]
			},
			{
				"id": "reset-json-slot-from-backup",
				"scriptName": "ResetJsonSlotFromBackup",
				"highlight": false,
				"params": [
					{
						"id": "set-json-reset-slot",
						"type": "string",
						"initialValue": ""
					}
				]
			},
			{
				"id": "remove-json-slot",
				"scriptName": "RemoveJsonSlot",
				"highlight": false,
				"params": [
					{
						"id": "set-json-slot-to-remove",
						"type": "string",
						"initialValue": ""
					}
				]
			},
			{
				"id": "set-json-sub-object-to-new-slot",
				"scriptName": "SetJsonSubToNewSlot",
				"highlight": false,
				"params": [
					{
						"id": "set-json-sub-old-slot",
						"type": "string",
						"initialValue": ""
					},
					{
						"id": "set-json-sub-new-query",
						"type": "string",
						"initialValue": ""
					},
					{
						"id": "set-json-sub-new-slot",
						"type": "string",
						"initialValue": ""
					},
					{
						"id": "set-json-sub-object-to-new-slot-used-within-another-array-loop",
						"type": "combo",
						"items": ["set-json-sub-object-to-new-slot-item-not-in-existing-loop", "set-json-sub-object-to-new-slot-item-in-existing-loop"],
						"initialValue": "set-json-sub-object-to-new-slot-item-not-in-existing-loop"
					}
				]
			},
			{
				"id": "set-json-value",
				"scriptName": "SetJsonValue",
				"highlight": false,
				"params": [
					{
						"id": "set-json-slot",
						"type": "string",
						"initialValue": ""
					},
					{
						"id": "set-json-query",
						"type": "string",
						"initialValue": ""
					},
					{
						"id": "set-json-property",
						"type": "string",
						"initialValue": ""
					},
					{
						"id": "set-json-value",
						"type": "any",
						"initialValue": ""
					},
					{
						"id": "set-json-value-used-within-another-array-loop",
						"type": "combo",
						"items": ["set-json-value-item-not-in-existing-loop", "set-json-value-item-in-existing-loop"],
						"initialValue": "set-json-value-item-not-in-existing-loop"
					}
				]
			}
		],
		"expressions": [
			{
				"id": "get-json-value",
				"expressionName": "GetJsonValue",
				"scriptName": "GetJsonValue",
				"highlight": true,
				"returnType": "string",
				"params": [
					{
						"id": "slot",
						"type": "string"
					},
					{
						"id": "query",
						"type": "string"
					},
					{
						"id": "get-json-value-used-within-another-array-loop",
						"type": "string",
						"initialValue": "No"
					}
				]
			},
			{
				"id": "get-json-array-length",
				"expressionName": "GetJsonArrayLength",
				"scriptName": "GetJsonArrayLength",
				"highlight": false,
				"returnType": "number",
				"params": [
					{
						"id": "array-slot",
						"type": "string"
					},
					{
						"id": "array-query",
						"type": "string"
					},
					{
						"id": "get-json-array-length-used-within-another-array-loop",
						"type": "string",
						"initialValue": "No"
					}
				]
			}
		]
	},
	"jsonconversion" : {
		"conditions": [],
		"actions": [],
		"expressions": [
			{
				"id": "get-array-from-json-path",
				"expressionName": "GetArrayFromJsonPath",
				"scriptName": "GetArrayFromJsonPath",
				"highlight": true,
				"returnType": "string",
				"params": [
					{
						"id": "array-from-json-path-slot",
						"type": "string"
					},
					{
						"id": "array-from-json-path-query",
						"type": "string"
					},
					{
						"id": "get-array-from-json-path-used-within-another-array-loop",
						"type": "string",
						"initialValue": "No"
					}
				]
			},
			{
				"id": "get-dictionary-from-json-path",
				"expressionName": "GetDictionaryFromJsonPath",
				"scriptName": "GetDictionaryFromJsonPath",
				"highlight": false,
				"returnType": "string",
				"params": [
					{
						"id": "dictionary-from-json-path-slot",
						"type": "string"
					},
					{
						"id": "dictionary-from-json-path-query",
						"type": "string"
					},
					{
						"id": "get-dictionary-from-json-path-used-within-another-array-loop",
						"type": "string",
						"initialValue": "No"
					}
				]
			}
		]
	}
}