<?xml version="1.0" standalone="no"?>
<!DOCTYPE svg PUBLIC "-//W3C//DTD SVG 20010904//EN"
 "http://www.w3.org/TR/2001/REC-SVG-20010904/DTD/svg10.dtd">
<svg version="1.0" xmlns="http://www.w3.org/2000/svg"
 width="225.000000pt" height="225.000000pt" viewBox="0 0 225.000000 225.000000"
 preserveAspectRatio="xMidYMid meet">
<metadata>
JSON
</metadata>
<g transform="translate(0.000000,225.000000) scale(0.100000,-0.100000)"
fill="#3F9BBF" stroke="none">
<path d="M301 2234 c-53 -37 -51 -4 -51 -1118 0 -635 4 -1044 10 -1060 22 -58
-3 -56 865 -56 868 0 843 -2 865 56 6 15 10 347 10 845 0 678 -2 825 -14 852
-8 18 -119 137 -248 265 l-234 232 -590 0 c-529 0 -592 -2 -613 -16z m1159
-290 c0 -212 -1 -226 -17 -218 -10 4 -36 8 -58 8 -36 1 -40 -1 -40 -24 0 -22
19 -39 60 -53 6 -2 12 -57 15 -123 4 -101 8 -124 26 -149 l22 -29 -22 -29
c-18 -24 -22 -47 -26 -145 l-5 -117 -37 -18 c-39 -18 -49 -42 -26 -65 16 -16
43 -15 78 3 47 24 60 61 60 170 0 119 21 164 76 165 56 1 55 65 -1 76 -60 11
-69 32 -75 163 -3 64 -10 124 -14 134 -8 16 6 17 218 17 l226 0 0 -485 0 -485
-795 0 -795 0 0 715 0 715 565 0 565 0 0 -226z m240 1 l165 -165 -168 0 -167
0 0 165 c0 91 1 165 3 165 1 0 76 -74 167 -165z m220 -1575 l0 -290 -795 0
-795 0 0 290 0 290 795 0 795 0 0 -290z"/>
<path d="M755 1707 l-35 -35 0 -110 c0 -125 -13 -155 -74 -166 -59 -11 -58
-76 1 -76 13 0 35 -11 48 -25 23 -23 25 -31 25 -132 0 -89 3 -114 20 -140 23
-39 90 -64 115 -43 26 22 18 50 -20 66 -41 17 -43 25 -47 161 -3 88 -6 105
-25 125 l-21 23 24 35 c22 31 24 45 24 140 0 58 4 110 8 116 4 6 21 17 37 25
21 10 30 21 30 39 0 22 -5 25 -38 28 -32 3 -43 -2 -72 -31z"/>
<path d="M638 390 c-2 -130 -6 -163 -18 -170 -21 -13 -87 -12 -112 1 -21 11
-37 -1 -38 -27 0 -19 61 -38 119 -38 48 1 58 5 83 33 l28 31 0 165 0 165 -29
0 -30 0 -3 -160z"/>
<path d="M848 534 c-29 -15 -58 -61 -58 -89 0 -35 33 -76 84 -105 71 -40 90
-62 82 -95 -9 -37 -49 -50 -105 -36 -43 12 -60 5 -61 -21 0 -12 33 -26 70 -28
70 -5 92 0 121 29 23 24 29 38 29 73 0 52 -20 77 -83 109 -81 41 -96 70 -56
110 17 17 30 20 65 16 37 -4 44 -2 50 16 4 12 1 23 -7 28 -22 14 -101 10 -131
-7z"/>
<path d="M1161 528 c-60 -41 -75 -71 -79 -154 -7 -124 30 -190 119 -214 115
-31 210 75 196 217 -11 107 -61 163 -151 171 -41 3 -57 -1 -85 -20z m120 -38
c53 -29 74 -182 32 -238 -44 -60 -106 -63 -147 -9 -28 38 -35 151 -12 199 25
51 81 72 127 48z"/>
<path d="M1490 356 l0 -196 30 0 29 0 3 133 3 132 75 -132 c72 -128 76 -133
108 -133 l32 0 0 195 0 195 -30 0 -29 0 -3 -136 -3 -136 -75 133 c-71 125 -78
134 -108 137 l-32 3 0 -195z"/>
</g>
</svg>
